<?xml version="1.0" encoding="utf-8"?>
<!-- Generator: Adobe Illustrator 24.0.2, SVG Export Plug-In . SVG Version: 6.00 Build 0)  -->
<svg version="1.1" id="Capa_1" xmlns="http://www.w3.org/2000/svg" xmlns:xlink="http://www.w3.org/1999/xlink" x="0px" y="0px"
	 viewBox="0 0 40 40" style="enable-background:new 0 0 40 40;" xml:space="preserve">
<g>
	<linearGradient id="SVGID_1_" gradientUnits="userSpaceOnUse" x1="0.1382" y1="20" x2="39.8618" y2="20">
		<stop  offset="0.2598" style="stop-color:#FF6C00"/>
		<stop  offset="0.905" style="stop-color:#FF0063"/>
	</linearGradient>
	<circle style="fill:url(#SVGID_1_);" cx="20" cy="20" r="19.8617"/>
	<g>
		<path style="fill:#FFFFFF;" d="M12.5318,25.8291l7.9756-7.1631c0.4053-0.3672,0.8115-0.7832,1.2178-1.2471
			c0.4053-0.4639,0.6084-1.0049,0.6084-1.624c0-0.6958-0.251-1.2422-0.7539-1.6387c-0.5029-0.396-1.0918-0.5942-1.7686-0.5942
			c-0.8125,0-1.4453,0.2515-1.8994,0.7539c-0.4551,0.5029-0.7109,1.1216-0.7686,1.856l-4.3506-0.3188
			c0.0586-1.063,0.2803-1.9868,0.667-2.7695c0.3867-0.7832,0.8994-1.4355,1.5371-1.9575c0.6387-0.522,1.3877-0.9136,2.248-1.1743
			c0.8594-0.2612,1.793-0.3916,2.7979-0.3916c0.9287,0,1.7988,0.1304,2.6104,0.3916c0.8115,0.2607,1.5176,0.6479,2.1172,1.1597
			c0.5986,0.5127,1.0674,1.1558,1.4063,1.9287c0.3379,0.7734,0.5078,1.6724,0.5078,2.6968c0,0.6577-0.0684,1.252-0.2031,1.7837
			c-0.1357,0.5317-0.3242,1.0151-0.5654,1.4497c-0.2422,0.4351-0.5273,0.8369-0.8555,1.2036
			c-0.3291,0.3677-0.6865,0.7251-1.0732,1.0732l-6.2354,5.3647h9.1064v3.8281H12.5318V25.8291z"/>
	</g>
</g>
</svg>
