<?xml version="1.0" encoding="utf-8"?>
<!-- Generator: Adobe Illustrator 24.0.2, SVG Export Plug-In . SVG Version: 6.00 Build 0)  -->
<svg version="1.1" id="Modo_de_aislamiento" xmlns="http://www.w3.org/2000/svg" xmlns:xlink="http://www.w3.org/1999/xlink"
	 x="0px" y="0px" viewBox="0 0 60 60" style="enable-background:new 0 0 60 60;" xml:space="preserve">
<g>
	<circle style="fill:#FFEDED;" cx="29.8352" cy="29.9231" r="28.8352"/>
	<g>
		<linearGradient id="SVGID_1_" gradientUnits="userSpaceOnUse" x1="44.2604" y1="38.6153" x2="53.537" y2="38.6153">
			<stop  offset="0.2598" style="stop-color:#FF6C00"/>
			<stop  offset="0.905" style="stop-color:#FF0061"/>
		</linearGradient>
		<circle style="fill:url(#SVGID_1_);" cx="48.8987" cy="38.6153" r="4.6383"/>
		<linearGradient id="SVGID_2_" gradientUnits="userSpaceOnUse" x1="9.2604" y1="38.6153" x2="18.537" y2="38.6153">
			<stop  offset="0.2598" style="stop-color:#FF6C00"/>
			<stop  offset="0.905" style="stop-color:#FF0061"/>
		</linearGradient>
		<circle style="fill:url(#SVGID_2_);" cx="13.8987" cy="38.6153" r="4.6383"/>
		<g>
			<linearGradient id="SVGID_3_" gradientUnits="userSpaceOnUse" x1="13.5908" y1="20.8889" x2="41.6286" y2="20.8889">
				<stop  offset="0.2598" style="stop-color:#FF6C00"/>
				<stop  offset="0.905" style="stop-color:#FF0061"/>
			</linearGradient>
			<polygon style="fill:url(#SVGID_3_);" points="13.5908,22.5236 18.7222,18.3443 27.1873,16.5457 33.5346,18.3972 39.8828,22.841 
				41.6286,25.2321 13.5908,24.428 			"/>
			<g>
				<path style="fill:#ADADAD;" d="M57.2286,27.2512L57.2286,27.2512c-1.4222-0.7426-2.9041-1.3654-4.4156-1.8594l0.0009-0.0014
					c0,0-0.8137-0.3997-4.7821-1.0828c-0.0571-0.0199-0.117-0.0344-0.1794-0.0423c-0.0692-0.0088-0.1384-0.0153-0.2076-0.0235
					c-0.0119-0.002-0.0229-0.0039-0.0348-0.0059l-0.3495-0.0381l-0.0002,0.0005c-1.5037-0.153-3.0019-0.1636-4.4664-0.0302
					c-1.3867-1.2941-2.743-2.5424-4.0359-3.7145c-3.0982-2.8071-7.1008-4.4761-11.2703-4.6994l-4.0912-0.2191
					c-3.8692-0.2065-7.5983,0.775-10.7834,2.839c-2.1907,1.4196-3.9179,3.0371-5.1408,4.8133
					c-2.9231,0.0127-3.1831-0.0271-3.4919,0.0295c-1.0843,0.1682-1.9178,1.1057-1.9178,2.2369v5.3147
					c0,0.0034-0.0005,0.0068-0.0005,0.0102s0.0005,0.0068,0.0005,0.0102v0.6531H1.2328C0.553,31.4418,0,31.9944,0,32.6735v5.3778
					c0,0.5857,0.4168,1.0936,0.9885,1.2073l7.4725,1.5096c0.8609,2.1782,2.9858,3.7239,5.4663,3.7239
					c2.3298,0,4.3472-1.3628,5.2971-3.3329h2.7354h0.5063h4.1015h0.469h16.5159c0.9499,1.9703,2.9673,3.3329,5.297,3.3329
					c2.3298,0,4.3472-1.3628,5.2971-3.3329h2.6777c1.7511,0,3.1758-1.4246,3.1758-3.1758v-6.1652
					C59.9999,29.8933,58.9379,28.1436,57.2286,27.2512z M57.498,30.8791c0.2078,0,0.4141,0.0074,0.618,0.0207
					c0.0825,0.2943,0.126,0.6025,0.126,0.9179v0.8914c-0.2435,0.0194-0.4921,0.0294-0.744,0.0294
					c-1.9866,0-3.2889-1.0181-3.4341-1.5415C54.4279,30.986,55.5813,30.8791,57.498,30.8791z M28.645,17.6256
					c3.311,0.4346,6.4447,1.8758,8.9327,4.1301c0.838,0.7597,1.7032,1.5521,2.5861,2.3681v0l-11.566-0.3908
					C29.1275,21.468,28.9549,19.131,28.645,17.6256z M24.974,17.3795l1.8333,0.0982c0.2921,1.0822,0.6871,3.6879-0.0049,6.1946
					l-12.5437-0.4239c-0.0202-0.0007-0.043-0.0014-0.0595-0.039c-0.0199-0.0451,0.0025-0.0711,0.0143-0.0852
					C16.6818,20.2373,20.5378,17.8913,24.974,17.3795z M3.8204,25.4535c0-0.0797,0.02-0.1541,0.0527-0.2214l2.2953,3.2747
					c0.0478,0.0682,0.0732,0.1485,0.0732,0.2319v0.7566c0,0.2229-0.1813,0.4042-0.4043,0.4042h-2.017V25.4535z M8.058,38.8932
					l-6.3001-1.2728v-0.5689h6.506C8.097,37.6551,8.0287,38.2669,8.058,38.8932z M13.9274,42.7339
					c-2.271,0-4.1187-1.8477-4.1187-4.1187c0-2.271,1.8477-4.1187,4.1187-4.1187c2.2711,0,4.1188,1.8477,4.1188,4.1187
					C18.0462,40.8862,16.1985,42.7339,13.9274,42.7339z M43.027,39.4013H26.5676c-0.0318,0-0.0632,0.0019-0.0941,0.0052h-3.9133
					c-0.0309-0.0033-0.0623-0.0052-0.0941-0.0052h-2.7162c0.0346-0.2572,0.054-0.5191,0.054-0.7857
					c0-0.5415-0.0751-1.0656-0.2129-1.5639h23.5949c-0.1378,0.4983-0.2129,1.0223-0.2129,1.5639
					C42.973,38.8821,42.9925,39.1441,43.027,39.4013z M48.8494,42.7339c-2.271,0-4.1187-1.8477-4.1187-4.1187
					c0-2.271,1.8477-4.1187,4.1187-4.1187c2.2711,0,4.1188,1.8477,4.1188,4.1187C52.9682,40.8862,51.1205,42.7339,48.8494,42.7339z
					 M58.2421,37.983c0,0.7819-0.6361,1.418-1.418,1.418h-2.1523c0.0346-0.2572,0.054-0.5191,0.054-0.7857
					c0-0.5415-0.0751-1.0656-0.2129-1.5639h3.7291V37.983z M58.2422,35.2937h-4.5484c-1.0604-1.5416-2.8359-2.5549-4.8443-2.5549
					c-2.0084,0-3.7839,1.0133-4.8442,2.5549H18.7717c-1.0604-1.5416-2.8359-2.5549-4.8443-2.5549s-3.7839,1.0133-4.8442,2.5549
					H1.7579v-2.0941h1.1836c0.4854,0,0.8789-0.3934,0.8789-0.8789v-0.6633h2.017c1.1921,0,2.1621-0.9698,2.1621-2.162v-0.7566
					c0-0.4464-0.1355-0.8754-0.3916-1.2409L5.8185,24.945h2.1258c0.3003,0,0.5801-0.1535,0.7414-0.4069
					c1.0966-1.7223,2.7397-3.3,4.8834-4.6892c1.341-0.8691,2.7908-1.5221,4.3104-1.9556c-0.2675,0.1536-0.5312,0.3131-0.7895,0.4806
					c-1.6782,1.0878-3.0956,2.3019-4.2126,3.6083c-0.4639,0.5427-0.5739,1.2845-0.287,1.936
					c0.2849,0.6469,0.9013,1.0635,1.6089,1.0874c0,0,28.2734,0.9552,28.2818,0.9553c0.0084,0,0.0169-0.0007,0.0254-0.0009
					c0.024-0.0006,0.0479-0.0015,0.0714-0.004l0.0029-0.0001c1.3707-0.1501,2.7777-0.1608,4.1936-0.0365
					c0.3591,0.05,3.1197,0.4435,4.8601,0.9451c1.6384,0.4908,3.2462,1.1437,4.7807,1.945c0.175,0.0913,0.3383,0.1977,0.4917,0.3146
					c-0.9596,0.0096-1.9034,0.0499-2.6351,0.1915c-1.6357,0.3165-1.9791,1.1483-1.9791,1.7903c0,1.8062,2.4324,3.3907,5.2054,3.3907
					c0.2509,0,0.4988-0.0103,0.744-0.0267V35.2937z"/>
				<path style="fill:#ADADAD;" d="M13.9274,35.7414c-1.5846,0-2.8738,1.2892-2.8738,2.8737c0,1.5846,1.2892,2.8738,2.8738,2.8738
					c1.5846,0,2.8738-1.2892,2.8738-2.8738C16.8012,37.0306,15.512,35.7414,13.9274,35.7414z M13.9274,39.7312
					c-0.6153,0-1.116-0.5006-1.116-1.116c0-0.6154,0.5006-1.1159,1.116-1.1159c0.6154,0,1.116,0.5005,1.116,1.1159
					C15.0434,39.2305,14.5428,39.7312,13.9274,39.7312z"/>
				<path style="fill:#ADADAD;" d="M48.8494,35.7414c-1.5846,0-2.8738,1.2892-2.8738,2.8737c0,1.5846,1.2892,2.8738,2.8738,2.8738
					c1.5846,0,2.8738-1.2892,2.8738-2.8738C51.7232,37.0306,50.434,35.7414,48.8494,35.7414z M48.8494,39.7312
					c-0.6153,0-1.116-0.5006-1.116-1.116c0-0.6154,0.5006-1.1159,1.116-1.1159c0.6154,0,1.116,0.5005,1.116,1.1159
					C49.9654,39.2305,49.4648,39.7312,48.8494,39.7312z"/>
				<path style="fill:#ADADAD;" d="M30.6094,26.7989H30c-0.4854,0-0.8789,0.3934-0.8789,0.8789
					c0,0.4855,0.3935,0.8789,0.8789,0.8789h0.6094c0.4854,0,0.8789-0.3934,0.8789-0.8789
					C31.4883,27.1923,31.0948,26.7989,30.6094,26.7989z"/>
				<path style="fill:#ADADAD;" d="M17.4735,26.7989h-0.6094c-0.4854,0-0.8789,0.3934-0.8789,0.8789
					c0,0.4855,0.3935,0.8789,0.8789,0.8789h0.6094c0.4854,0,0.8789-0.3934,0.8789-0.8789
					C18.3524,27.1923,17.9589,26.7989,17.4735,26.7989z"/>
			</g>
		</g>
	</g>
</g>
</svg>
